<svg width="48" height="48" viewBox="0 0 48 48" fill="none" xmlns="http://www.w3.org/2000/svg">
<path d="M5.40918 9.56384L11.5082 3.46484L12.9932 4.94984L6.89418 11.0488L5.40918 9.56384Z" fill="#ACB8BF"/>
<path d="M16.0659 11.0975L22.1657 5L23.6507 6.485L17.5509 12.5825L16.0659 11.0975Z" fill="#ACB8BF"/>
<path d="M36.9829 41.1405L43.0834 35.043L44.5684 36.5287L38.4679 42.6262L36.9829 41.1405Z" fill="#ACB8BF"/>
<path d="M35.4595 30.4178L41.56 24.3203L43.045 25.8061L36.9437 31.9036L35.4595 30.4178Z" fill="#ACB8BF"/>
<path d="M42.2999 45.5247L38.7749 13.9497L34.0499 9.22469L2.47486 5.69969C0.974864 5.54969 1.27486 9.29969 2.99986 10.1247L26.7749 21.2247L37.8749 44.9997C38.6999 46.7247 42.4499 47.0247 42.2999 45.5247Z" fill="#42ADE2"/>
<path d="M45.9751 6.07404C47.6251 2.84903 45.1501 0.374034 41.9251 2.02403C37.8001 4.12403 31.7251 8.84903 25.5751 14.924C15.9751 24.524 9.82506 34.049 11.8501 36.149C13.8751 38.174 23.4751 32.024 33.0751 22.424C39.1501 16.349 43.8751 10.199 45.9751 6.07404Z" fill="#DAE3EA"/>
<path d="M16.8001 45.1503L15.6001 34.0503L13.9501 32.4003L2.85011 31.2003C2.32511 31.1253 2.40011 32.4753 3.00011 32.7753L11.3251 36.6753L15.2251 45.0003C15.5251 45.6003 16.8751 45.6753 16.8001 45.1503Z" fill="#42ADE2"/>
<path d="M15.1501 34.6506C11.7751 38.0256 8.70007 40.3506 8.25007 39.8256C7.80007 39.3756 10.1251 36.2256 13.4251 32.8506C16.8001 29.4756 19.8751 27.1506 20.4001 27.6756C20.7751 28.1256 18.4501 31.2756 15.1501 34.6506Z" fill="#ACB8BF"/>
<path d="M44.85 7.27473C45.225 5.92473 45.075 4.64973 44.25 3.74973C43.425 2.92473 42.075 2.69973 40.8 3.14973L38.25 4.72473C39.525 4.27473 41.4 4.94973 42.225 5.77473C43.125 6.67473 43.725 8.47473 43.275 9.74973L44.85 7.27473Z" fill="#3E4347"/>
<path d="M40.248 7.27159L44.4885 3.02734L44.9663 3.50434L40.725 7.74934L40.248 7.27159Z" fill="#DAE3EA"/>
</svg>
