<svg width="19" height="18" viewBox="0 0 19 18" fill="none" xmlns="http://www.w3.org/2000/svg">
<path d="M6.94238 12.4425L10.3774 9L6.94238 5.5575L7.99988 4.5L12.4999 9L7.99988 13.5L6.94238 12.4425Z" fill="#666666"/>
</svg>
